<?xml version="1.0" encoding="UTF-8" standalone="no"?>
<!-- Created with Inkscape (http://www.inkscape.org/) -->

<svg
   xmlns:dc="http://purl.org/dc/elements/1.1/"
   xmlns:cc="http://creativecommons.org/ns#"
   xmlns:rdf="http://www.w3.org/1999/02/22-rdf-syntax-ns#"
   xmlns:svg="http://www.w3.org/2000/svg"
   xmlns="http://www.w3.org/2000/svg"
   xmlns:sodipodi="http://sodipodi.sourceforge.net/DTD/sodipodi-0.dtd"
   xmlns:inkscape="http://www.inkscape.org/namespaces/inkscape"
   width="8.3558369in"
   height="2.7942104in"
   viewBox="0 0 752.02534 251.47894"
   id="svg2"
   version="1.1"
   inkscape:version="0.91 r13725"
   sodipodi:docname="DtW-shirt-globe-small.svg">
  <defs
     id="defs4" />
  <sodipodi:namedview
     id="base"
     pagecolor="#242f3f"
     bordercolor="#666666"
     borderopacity="1.0"
     inkscape:pageopacity="0"
     inkscape:pageshadow="2"
     inkscape:zoom="1.4"
     inkscape:cx="324.58656"
     inkscape:cy="55.710416"
     inkscape:document-units="px"
     inkscape:current-layer="g3831"
     showgrid="false"
     units="in"
     inkscape:window-width="1918"
     inkscape:window-height="1059"
     inkscape:window-x="1920"
     inkscape:window-y="19"
     inkscape:window-maximized="0"
     fit-margin-top="0"
     fit-margin-left="0"
     fit-margin-right="0"
     fit-margin-bottom="0" />
  <metadata
     id="metadata7">
    <rdf:RDF>
      <cc:Work
         rdf:about="">
        <dc:format>image/svg+xml</dc:format>
        <dc:type
           rdf:resource="http://purl.org/dc/dcmitype/StillImage" />
        <dc:title></dc:title>
      </cc:Work>
    </rdf:RDF>
  </metadata>
  <g
     inkscape:groupmode="layer"
     id="layer2"
     inkscape:label="Background"
     style="display:inline"
     transform="translate(-5.219998,-4.136917)">
    <g
       id="g156"
       transform="matrix(4.2193537,0,0,-4.2193537,905.40468,142.33044)"
       style="fill:#ffffff" />
  </g>
  <g
     transform="translate(-5.219998,-606.49907)"
     id="g3831"
     inkscape:groupmode="layer"
     inkscape:label="Text copy"
     style="display:inline">
    <g
       id="g4771"
       transform="matrix(1.1885226,0,0,1.1885226,-73.144389,-144.90079)">
      <path
         transform="translate(0,602.36215)"
         id="path1272"
         d="m 585.45703,29.851562 c -0.39672,0.0061 -0.79751,0.09125 -1.18359,0.261719 -1.40946,0.620717 -2.10156,2.17028 -1.70313,3.607422 L 536.5,54.037109 c -0.75432,-1.373541 -2.43733,-1.976152 -3.89648,-1.332031 -1.5283,0.673477 -2.22531,2.448234 -1.58008,3.980469 l -27.02539,32.625 c -0.86476,-0.735455 -2.09956,-0.967939 -3.20899,-0.478516 -1.54295,0.680531 -2.24047,2.484967 -1.55859,4.029297 0.36663,0.832937 1.06325,1.408742 1.86719,1.666016 l -12.58204,39.435546 c -0.0302,0.0122 -0.0617,0.016 -0.0918,0.0293 -1.54425,0.68053 -2.24108,2.4863 -1.56055,4.02929 0.51514,1.168 1.67313,1.84939 2.875,1.81836 l 16.26367,52.34375 c -0.0785,0.0273 -0.15896,0.042 -0.23633,0.0762 -1.54294,0.68053 -2.24047,2.48496 -1.55859,4.02929 0.67918,1.5416 2.48241,2.24303 4.02539,1.5625 0.03,-0.0132 0.0546,-0.0328 0.084,-0.0469 l 39.02929,31.80664 c -0.0422,0.49397 0.0221,1.00299 0.23633,1.48828 0.67918,1.5443 2.4824,2.24303 4.02539,1.5625 0.58772,-0.25952 1.05134,-0.68145 1.36524,-1.18945 l 40.79882,7.66992 c 0.0413,0.15962 0.0874,0.31889 0.15625,0.47461 0.67918,1.54436 2.48032,2.24437 4.02735,1.5625 1.08663,-0.4798 1.74107,-1.51611 1.80469,-2.625 l 51.84765,-19.24024 c 0.73813,1.4164 2.44789,2.04165 3.92969,1.38867 1.54295,-0.68053 2.24438,-2.48495 1.5625,-4.02929 -0.19603,-0.44445 -0.49237,-0.80796 -0.8418,-1.09961 l 24.34571,-32.54492 c 0.83394,0.53827 1.91319,0.66166 2.89062,0.23047 1.5456,-0.68188 2.24303,-2.48302 1.5625,-4.02735 -0.35479,-0.80278 -1.01394,-1.37153 -1.78125,-1.64258 l 11.50781,-41.45507 c 0.6614,0.18914 1.38524,0.16904 2.06446,-0.13086 1.54429,-0.68188 2.24693,-2.48497 1.5664,-4.0293 -0.57628,-1.30656 -1.95859,-1.99733 -3.30664,-1.76758 l -18.9707,-49.984374 c 0.044,-0.01705 0.0892,-0.02372 0.13281,-0.04297 1.5456,-0.683227 2.24498,-2.486313 1.56445,-4.029297 -0.68053,-1.544329 -2.48495,-2.246331 -4.02929,-1.564453 -0.32081,0.141685 -0.59491,0.340708 -0.83789,0.566406 L 662.0332,67.9453 659.11133,60.658191 c 0.004,-0.0019 0.009,-0.002 0.0137,-0.0039 1.54295,-0.680531 2.24303,-2.486313 1.5625,-4.029297 -0.68053,-1.542989 -2.48435,-2.24303 -4.02734,-1.5625 -0.35731,0.157594 -0.66561,0.379582 -0.92578,0.640625 l -28.2461,-11.337891 c -0.0315,-0.311872 -0.0972,-0.623497 -0.23047,-0.925781 -0.68188,-1.544331 -2.48226,-2.245725 -4.02929,-1.5625 -0.49261,0.217119 -0.88829,0.557113 -1.19141,0.957031 l -33.52149,-9.43164 c 0.0929,-0.565367 0.0321,-1.163323 -0.21679,-1.726563 -0.5104,-1.158247 -1.65165,-1.84241 -2.8418,-1.824219 z m 2.95508,3.953126 33.38477,9.394531 c -0.24041,0.435349 -0.37654,0.921157 -0.38477,1.423828 l -67.67383,15.460937 c -0.0412,-0.159587 -0.0855,-0.318923 -0.1543,-0.474609 -0.28093,-0.636969 -0.75954,-1.119752 -1.32617,-1.431641 l 31.04297,-23.166015 c 0.8628,0.903297 2.22438,1.225644 3.4375,0.691406 0.84363,-0.372497 1.42228,-1.081941 1.67383,-1.898437 z m -5.71094,0.314453 c 0.003,0.0077 0.004,0.01574 0.008,0.02344 0.0878,0.199552 0.19591,0.382526 0.31836,0.552734 l -31.19531,23.28125 c -0.71514,-0.260639 -1.52592,-0.261467 -2.27734,0.07031 -0.31713,0.139748 -0.58902,0.336055 -0.83008,0.558594 L 536.758,56.34375 c 0.1786,-0.617189 0.16557,-1.287765 -0.0781,-1.927734 l 46.02148,-20.296875 z m 44.80078,10.701171 27.95117,11.21875 c -0.63444,0.854292 -0.8152,2.010355 -0.35546,3.052735 0.0559,0.127043 0.13075,0.238193 0.20117,0.353515 l -2.25195,2.578126 -25.57227,-16.857422 c 0.0187,-0.113477 0.0216,-0.230153 0.0273,-0.345704 z m -6.05859,0.22461 c 0.0359,0.290157 0.0984,0.580001 0.22266,0.861328 0.0299,0.06784 0.0733,0.124918 0.10742,0.189453 l -35.41797,24.273438 c -0.0429,-0.216134 -0.10449,-0.430685 -0.19727,-0.640625 -0.68053,-1.544331 -2.48557,-2.244378 -4.03125,-1.5625 -1.02264,0.45106 -1.66215,1.398436 -1.78711,2.433593 l -26.78711,-8.484375 c 0.23053,-0.500907 0.32186,-1.058107 0.25782,-1.61914 l 67.63281,-15.451172 z m 5.91992,0.548828 25.40625,16.746094 -9.71484,11.11914 -3.73047,-3.914062 c 0.43635,-0.803234 0.52064,-1.787023 0.12305,-2.6875 -0.68053,-1.542983 -2.48557,-2.242425 -4.03125,-1.560547 -0.97588,0.43043 -1.61246,1.311949 -1.77735,2.291016 l -11.51367,0.78125 2.83594,-20.69336 c 0.24674,-0.04128 0.49278,-0.101408 0.73242,-0.207031 0.83601,-0.369232 1.41335,-1.069451 1.66992,-1.875 z m -5.38281,0.863281 c 0.12286,0.171507 0.2622,0.325387 0.41406,0.464844 l -19.91211,22.777344 -15.99219,1.082031 35.49024,-24.324219 z m 0.74414,0.71875 c 0.52854,0.365793 1.16036,0.564669 1.81055,0.548828 l -2.83399,20.671875 -18.63086,1.261719 19.6543,-22.482422 z m -86.10938,9.566407 11.77344,2.228515 c -0.66752,0.858465 -0.864,2.039076 -0.39453,3.103516 0.23969,0.544535 0.62316,0.978014 1.08203,1.289062 l -4.69922,43.562499 c 0.14144,-0.007 0.28231,-0.006 0.42383,-0.01 l 4.67383,-43.330082 c 0.24851,0.11879 0.50727,0.215118 0.7793,0.263671 l 13.82421,47.566411 c -0.0615,0.0226 -0.12478,0.0337 -0.18554,0.0605 -1.00784,0.44511 -1.64476,1.36673 -1.78516,2.38086 l -8.89258,-0.60937 c 0.0523,0.14338 0.10588,0.28631 0.15821,0.42968 l 8.69922,0.59571 c -1.8e-4,0.41261 0.0803,0.83071 0.25781,1.23242 0.11234,0.25546 0.26409,0.4787 0.43164,0.68555 l -6.08984,6.52929 c 0.053,0.14531 0.10711,0.29024 0.16015,0.43555 l 6.20313,-6.65234 c 0.27343,0.2562 0.59173,0.45399 0.93359,0.59375 l -4.45117,13.41992 c 0.0768,0.21031 0.15371,0.42055 0.23047,0.63086 l 4.61914,-13.92774 c 0.0152,0.004 0.0297,0.01 0.0449,0.0137 l 0.99414,4.78124 c 0.087,-0.2628 0.17821,-0.52383 0.26367,-0.7871 l -0.8164,-3.92579 c 0.49862,0.0448 1.01427,-0.0175 1.50586,-0.23437 0.12389,-0.0547 0.23296,-0.12884 0.3457,-0.19727 l 0.20703,0.29102 c 0.0491,-0.16993 0.0982,-0.33962 0.14648,-0.50977 l -0.0137,-0.0195 c 0.009,-0.007 0.0165,-0.016 0.0254,-0.0234 0.31907,-1.12525 0.62731,-2.25311 0.91016,-3.38868 -0.0221,-0.06 -0.0324,-0.12228 -0.0586,-0.18164 -0.30384,-0.68811 -0.83594,-1.19453 -1.4629,-1.5 l 19.3711,-22.158201 2.68164,18.421871 c 0.13954,0.02 0.29254,0.0409 0.42969,0.0606 l -2.75,-18.896483 6.65039,-7.605469 21.14843,22.183592 -24.89843,5.35742 L 589,108.26758 c -0.13735,0.39086 -0.27645,0.78111 -0.41406,1.17187 l 0.1582,-0.0351 0.84961,5.83203 c -0.73202,0.35141 -1.26495,0.9553 -1.5332,1.66406 l -2.07813,-0.17187 c -0.0493,0.13614 -0.0991,0.27209 -0.14844,0.4082 l 2.11133,0.17383 c -0.056,0.24717 -0.0892,0.49891 -0.082,0.75586 1.8133,-0.79947 3.80792,-1.17054 5.83789,-1.33789 -0.64239,-1.42669 -2.24788,-2.10817 -3.70898,-1.64258 l -0.83985,-5.76953 25.17383,-5.41797 0.23828,0.24804 c 0.021,0.15817 0.0547,0.31422 0.10157,0.47071 l -20.66211,12.08789 c 0.30222,-0.022 0.6053,-0.0306 0.9082,-0.0449 l 19.89648,-11.64258 c 0.003,0.006 0.005,0.0117 0.008,0.0176 l -9.82422,11.86132 c 0.18398,-0.003 0.37009,-0.0124 0.55469,-0.0176 l 9.48828,-11.45703 c 0.28685,0.43698 0.67234,0.77469 1.11523,1.00976 l -2.37305,10.08008 c 0.14356,-0.002 0.28648,-0.001 0.42969,-0.002 l 2.33008,-9.89844 c 0.71197,0.25884 1.51901,0.2597 2.26758,-0.0684 l 3.59765,11.20898 c 0.16918,0.0659 0.33658,0.13846 0.50391,0.21094 l -3.73047,-11.62695 c 0.29265,-0.18044 0.54413,-0.40231 0.75391,-0.65821 l 8.16015,6.8418 c -0.0758,-0.23658 -0.14792,-0.47404 -0.19531,-0.70898 l -7.71484,-6.46875 c 0.006,-0.0102 0.0115,-0.021 0.0176,-0.0312 l 8.93359,1.33007 c 0.0953,-0.12678 0.18735,-0.25631 0.29102,-0.37695 l -9.0293,-1.3457 c 0.31113,-0.74559 0.33381,-1.60954 -0.0176,-2.40625 -0.0817,-0.1854 -0.18127,-0.35551 -0.29297,-0.51563 l 22.4082,-10.023434 3.75196,16.796874 -0.68555,-0.10156 c 0.0183,0.14249 0.0432,0.28195 0.0547,0.42773 l 0.72851,0.10938 1.76172,7.88476 c 0.142,0.003 0.28334,0.0106 0.42578,0.0117 l -1.74804,-7.83008 26.49609,3.94922 -0.125,4.72852 -0.86914,0.5039 c 0.14653,0.0745 0.2863,0.15524 0.42773,0.23438 l 0.42774,-0.24805 -0.0117,0.48047 c 0.14071,0.0862 0.27274,0.18061 0.4082,0.27149 l 0.0274,-0.9961 5.13281,-2.9707 c 0.0179,0.0465 0.0246,0.0946 0.0449,0.14062 0.0769,0.17477 0.17175,0.33594 0.27539,0.48829 l -3.12695,5.41601 c 0.0971,0.11174 0.19409,0.2229 0.28711,0.33789 l 3.125,-5.41015 c 0.76728,0.83113 1.94381,1.17813 3.0625,0.86132 l 10.97851,14.12305 c -0.76932,0.86618 -1.01553,2.13172 -0.51757,3.25977 0.23328,0.53043 0.60659,0.95021 1.04882,1.25976 l -14.125,8.86914 c 0.008,0.15713 0.0116,0.32046 0.0195,0.47852 l 14.51172,-9.11133 c 0.0382,0.0187 0.0744,0.0415 0.11328,0.0586 l -11.51367,41.48243 c -0.39524,-0.082 -0.80757,-0.0904 -1.21679,-0.008 l -4.45118,-16.30078 c -0.0992,0.15891 -0.1925,0.32146 -0.29882,0.47656 l 4.35156,15.94532 c -0.0779,0.0271 -0.15759,0.0423 -0.23438,0.0762 -1.54565,0.68188 -2.24107,2.48631 -1.56054,4.0293 0.19,0.43117 0.47181,0.78824 0.80664,1.07617 l -23.89063,31.93554 12.70703,-48.16015 c -0.15377,0.0365 -0.30661,0.0771 -0.46093,0.11133 l -12.82227,48.59765 c -0.63165,-0.35699 -1.37997,-0.49308 -2.11523,-0.34179 l -5.86524,-27.33008 13.38867,-20.02539 c -0.17157,0.007 -0.34382,0.0136 -0.51562,0.0195 l -12.9961,19.43359 -2.12695,-9.90625 c 1.48757,-0.70831 2.1568,-2.46926 1.48828,-3.98633 -0.0884,-0.20061 -0.19893,-0.38376 -0.32226,-0.55468 l 2.94336,-5.09766 c -0.16002,-0.003 -0.31684,-0.001 -0.47657,-0.004 l -2.7539,4.76954 c -0.75414,-0.77664 -1.8774,-1.10704 -2.95117,-0.82813 l -1.83789,-4.16602 c -0.1507,-6e-5 -0.30208,0.007 -0.45313,0.008 l 1.89063,4.28906 c -0.0225,0.009 -0.046,0.0116 -0.0684,0.0215 -1.5443,0.68188 -2.24108,2.48497 -1.56055,4.0293 0.0871,0.19778 0.19337,0.38181 0.31445,0.55078 l -24.36523,8.65821 -13.5,-16.84571 c 0.20823,-0.1508 0.38667,-0.32897 0.54687,-0.52148 -1.49378,0.10113 -2.98582,0.18258 -4.47265,0.23047 0.3544,0.34702 0.78682,0.59087 1.2539,0.73242 l -8.97656,23.75976 c -0.40783,-0.0517 -0.82626,-0.0177 -1.23828,0.10352 l -8.61133,-17.18359 14.54883,-7.39258 c -0.28337,-0.008 -0.56575,-0.0208 -0.84766,-0.0352 l -13.88672,7.05469 -7.6914,-15.34766 c 0.0576,-0.0214 0.11686,-0.0315 0.17383,-0.0566 0.76572,-0.33751 1.32206,-0.95037 1.60742,-1.66992 l 5.01172,1.70703 c -0.0787,-0.17017 -0.14862,-0.34325 -0.22071,-0.51562 l -4.67578,-1.5918 c 0.15591,-0.63282 0.1236,-1.31634 -0.16015,-1.95899 -0.28373,-0.64327 -0.76802,-1.12811 -1.3418,-1.43945 l 4.70508,-5.68164 c 0.006,-0.22448 0.012,-0.44882 0.0195,-0.67383 l -5.10938,6.16992 c -0.59072,-0.22077 -1.24701,-0.25024 -1.88476,-0.0723 -0.39076,1.17379 -0.78772,2.34449 -1.16602,3.52344 -0.0457,0.50507 -0.12837,1.00036 -0.24023,1.48632 0.72844,0.77851 1.8188,1.13945 2.8789,0.9043 l 7.71875,15.40625 -40.99609,20.83008 c -0.40646,-0.83883 -1.14863,-1.40593 -1.99414,-1.62109 l 0.2793,-0.83789 23.42187,-25.65625 c -0.24806,0.0712 -0.49607,0.14487 -0.74805,0.19921 l -22.35156,24.48438 11.36328,-34.27149 c -0.0785,-0.20538 -0.15871,-0.409 -0.23632,-0.61523 l -11.81836,35.64258 -0.88282,0.96875 c -0.33913,0.0251 -0.68054,0.0951 -1.00976,0.24023 -0.0743,0.0328 -0.13671,0.0793 -0.20703,0.11719 l -8.14063,-26.98633 c -0.13066,0.0451 -0.26057,0.0923 -0.39258,0.13281 l 8.16602,27.07422 c -0.22429,0.16518 -0.41475,0.36271 -0.58203,0.57618 l -18.13867,-22.83399 2.48437,-5.40625 c -0.1235,-0.0629 -0.24503,-0.13459 -0.36719,-0.20312 l -2.4082,5.24414 -25.94141,-32.65235 c 0.1988,-0.13432 0.37917,-0.28711 0.53711,-0.45898 l 21.33204,10.69336 c -0.0685,-0.18962 -0.13851,-0.37874 -0.20704,-0.56836 l -20.86523,-10.46094 c 0.57676,-0.83614 0.72863,-1.93374 0.30078,-2.93359 l 13.61133,-5.74024 c -0.048,-0.13069 -0.0946,-0.2619 -0.14258,-0.39258 l -13.66992,5.76563 c -0.14968,-0.24862 -0.32196,-0.47747 -0.52734,-0.66797 l 12.24414,-10.64062 c -0.0581,-0.13435 -0.1189,-0.26807 -0.17774,-0.40235 l -12.40625,10.78125 c -0.68509,-0.47538 -1.54533,-0.67032 -2.38672,-0.48633 l 12.4961,-39.166011 c 0.57259,0.09958 1.18038,0.0392 1.75195,-0.212891 0.55373,-0.244283 0.99271,-0.636681 1.30469,-1.105469 l 15.57617,8.166021 -2.35547,8.53906 c -0.14253,-0.018 -0.28472,-0.0376 -0.42969,-0.0352 0.65919,1.80522 1.31751,3.61075 1.97656,5.41602 1.03574,-0.8443 1.43559,-2.29621 0.87696,-3.58008 l 13.24609,1.1582 c 0.0626,-0.13699 0.12672,-0.27243 0.19531,-0.4043 l -13.68945,-1.19726 c -0.41946,-0.64415 -1.05422,-1.08415 -1.76562,-1.27539 l 2.32226,-8.42188 15.44141,8.09571 c 0.11802,-0.0965 0.23478,-0.19394 0.35742,-0.28516 l -15.68359,-8.22461 11.86914,-43.037108 c 0.23412,0.114345 0.47848,0.205941 0.73437,0.257812 l 9.17383,48.628906 c 0.13822,-0.021 0.27506,-0.0447 0.41406,-0.0625 l -9.15429,-48.517578 c 0.46674,0.02653 0.94352,-0.04069 1.40039,-0.242187 0.72119,-0.31808 1.25067,-0.88687 1.54882,-1.554687 z m -5.38085,0.33789 c 0.23282,0.383845 0.53474,0.702943 0.89062,0.94336 L 520.25,101.07031 504.76172,92.951172 c 0.37598,-0.778471 0.43441,-1.704545 0.0586,-2.556641 -0.13231,-0.300247 -0.31828,-0.558584 -0.52539,-0.791015 l 26.93946,-32.523438 z m 124.3125,2.716797 c 0.75904,0.918384 1.99606,1.320187 3.16601,0.992187 l 2.70899,6.753907 -8.02149,-5.28711 2.14649,-2.458984 z m -102.18946,2.695313 26.95117,8.535156 c 0.008,0.391077 0.0902,0.787911 0.25782,1.167968 0.46398,1.054097 1.45517,1.700783 2.52734,1.796876 l -17.97852,37.226562 c -0.2133,6.2e-4 -0.42716,0.0214 -0.64062,0.0684 L 550.69922,63.886719 c 0.44061,0.01322 0.88996,-0.05841 1.32031,-0.248047 0.57043,-0.25187 1.02481,-0.658046 1.33789,-1.146484 z m 99.76367,0.08008 8.57227,5.65039 4.99805,12.466797 -11.74024,5.251953 -11.60547,-12.177734 9.77539,-11.191406 z m -19.51562,5.435546 c -0.0126,0.44002 0.0606,0.888648 0.25,1.31836 0.1378,0.312432 0.33046,0.579467 0.54883,0.818359 l -16.25,30.603517 c -0.15211,-0.0293 -0.30684,-0.0391 -0.46289,-0.0449 l 4.375,-31.914056 11.53906,-0.78125 z m 28.69922,0.617188 10.37304,6.837891 c -0.62431,0.769108 -0.85002,1.807593 -0.55273,2.794921 L 667.07422,80.517578 662.30469,68.625 Z m -40.66211,0.193359 -4.375,31.900389 c -0.31063,0.0319 -0.62067,0.0995 -0.92188,0.23242 -1.03676,0.45779 -1.67854,1.42217 -1.79101,2.47266 l -0.0879,0.0195 -21.35157,-22.396483 9.56836,-10.943359 18.95899,-1.285157 z m 17.45117,1.085938 3.6875,3.869141 -3.13281,3.583984 -1.48047,-6.63086 c 0.37108,-0.213983 0.68242,-0.493797 0.92578,-0.822265 z m -37,0.238281 -9.26758,10.59961 -7.28711,-7.644532 c 0.50221,-0.511852 0.79702,-1.182852 0.85547,-1.890625 l 15.69922,-1.064453 z m 32.62891,0.302734 c 0.83748,0.684833 2.00047,0.90323 3.06445,0.47461 l 1.52344,6.824219 -20.34766,23.291017 c -0.12897,-0.0656 -0.25965,-0.12508 -0.39648,-0.17188 l 16.15625,-30.417966 z m -49.49805,2.925782 7.32812,7.685547 -6.4414,7.367187 -2.10547,-14.474609 c 0.19833,-0.04296 0.39502,-0.10634 0.58789,-0.191407 0.23238,-0.102516 0.4385,-0.238159 0.63086,-0.386718 z m -1.63281,0.625 2.16015,14.839844 -19.70312,22.53711 c -0.15984,-0.051 -0.32151,-0.0929 -0.48828,-0.11719 L 583.55469,74 c 0.0123,-7.79e-4 0.0248,-0.003 0.0371,-0.0039 z m 59.47851,0.08203 11.47852,12.042969 -11.76563,5.261718 -3.02148,-13.519531 3.30859,-3.785156 z m -3.64648,4.171875 2.97265,13.306641 -22.59765,10.107418 c -0.14464,-0.15407 -0.30012,-0.29283 -0.47071,-0.41211 L 639.42383,78.25 Z m 32.83984,0.404297 c 0.376,0.821478 1.07497,1.388698 1.87891,1.636719 l -0.44141,16.757812 -6.47265,-16.142578 5.03515,-2.251953 z m 3.47266,1.699219 18.96289,49.958983 c -0.10538,0.0334 -0.21296,0.0559 -0.31641,0.10156 -0.27846,0.12271 -0.51804,0.29086 -0.73828,0.47852 l -10.86328,-13.97461 c 1.53356,-0.68897 2.22683,-2.48229 1.54883,-4.01953 -0.68187,-1.543 -2.48362,-2.24438 -4.0293,-1.5625 -0.25956,0.1145 -0.48608,0.26819 -0.69531,0.43945 l -5.51367,-13.751951 0.46484,-17.626954 c 0.38577,0.06199 0.78514,0.05031 1.17969,-0.04297 z m -8.88867,0.724609 6.82617,17.025391 -0.19336,7.279293 -18.22266,-19.12109 11.58985,-5.183594 z m -11.99414,5.363281 18.61328,19.529293 -0.18164,6.83008 -26.60352,-3.96484 -3.80664,-17.035158 11.97852,-5.359375 z m 19.21093,12.636719 4.78516,11.937494 -4.96289,-5.20898 0.17773,-6.728514 z m -0.19336,7.318354 5.39649,5.66211 0.008,0.0195 c -0.38527,0.42441 -0.64569,0.94613 -0.74805,1.50391 l -4.82617,-0.71875 0.16992,-6.4668 z m -0.18164,6.88477 4.80274,0.7168 c -0.0121,0.2721 0.005,0.54709 0.0684,0.82031 l -4.98828,2.88672 0.11718,-4.42383 z m -141.77734,5.2168 -9.92773,4.18554 c 0.0478,0.131 0.0967,0.26159 0.14453,0.39258 l 9.62695,-4.06055 c 0.0513,-0.1727 0.1062,-0.34448 0.15625,-0.51757 z m 121.99219,15.66601 8.13086,6.81836 c 10e-5,-6e-4 -1.1e-4,-10e-4 0,-0.002 -0.0609,-0.19698 -0.0956,-0.41593 -0.11914,-0.64258 l -7.36329,-6.17383 c -0.21609,1e-5 -0.43234,2.7e-4 -0.64843,0 z m -8.2461,0.0117 c -0.003,0.0566 -10e-4,0.11328 -0.004,0.16992 l 0.29492,-0.16992 c -0.097,0.001 -0.19397,-0.001 -0.29102,0 z m -66.14648,0.11133 c -0.0583,0.15804 -0.11555,0.31655 -0.17383,0.47461 l 0.42773,0.60351 c -0.034,-0.29607 -0.0725,-0.59068 -0.11718,-0.88281 l -0.13672,-0.19531 z M 491,139.52148 l 26.11133,32.86914 -9.0918,19.79297 c -0.51178,-0.18145 -1.06923,-0.23068 -1.62109,-0.11914 L 490.1582,139.79102 c 0.24635,-0.0411 0.49146,-0.10162 0.73047,-0.20704 0.0398,-0.0176 0.0727,-0.0435 0.11133,-0.0625 z m 171.22461,5.4043 -2.9043,5.03125 c 0.14867,0.0319 0.29822,0.0631 0.4336,0.082 l 2.55468,-4.42383 c -0.0248,-0.22818 -0.0559,-0.45871 -0.084,-0.68945 z m -124.95117,10.56055 c -0.044,0.13904 -0.0873,0.27869 -0.13086,0.41797 l 12.96094,0.17578 c -0.051,-0.13956 -0.0978,-0.28203 -0.14844,-0.42188 l -12.68164,-0.17187 z m 66.28711,12.67773 13.44922,16.78125 -22.90235,8.13672 c -0.38924,-0.41066 -0.87844,-0.69775 -1.41406,-0.84375 l 8.9707,-23.74414 c 0.55745,0.0871 1.14446,0.0282 1.69922,-0.2168 0.0709,-0.0313 0.13,-0.0774 0.19727,-0.11328 z m -86.15821,4.59375 18.08594,22.76758 c -0.29986,0.52192 -0.43917,1.12308 -0.39648,1.73438 l -25.03516,-2.25196 c -0.006,-0.3968 -0.0896,-0.7998 -0.25976,-1.18554 -0.29287,-0.66457 -0.79948,-1.15986 -1.39844,-1.46875 l 9.0039,-19.59571 z m 64.65039,2.50391 8.58399,17.13086 c -1.52489,0.69112 -2.2116,2.47995 -1.53516,4.01367 0.23291,0.52805 0.60268,0.94849 1.04297,1.25781 l -5.78906,4.4375 -43.28711,-4.27539 c 0.14695,-0.55269 0.13787,-1.14289 -0.0488,-1.71679 l 41.0332,-20.84766 z m 60.03125,1.21484 c 0.78849,0.81168 1.9802,1.12971 3.09766,0.77735 l 2.19922,10.24414 -11.11133,16.61523 c -0.8132,-0.46555 -1.82421,-0.56124 -2.74609,-0.1543 -0.18303,0.0807 -0.35135,0.18121 -0.50977,0.29102 l -15.31445,-19.10742 24.38476,-8.66602 z m -24.79882,8.8125 15.41015,19.22852 c -0.38819,0.35701 -0.67274,0.79925 -0.83398,1.28906 l -37.16406,-9.43555 c 0.32155,-0.7513 0.34957,-1.62505 -0.006,-2.43164 -0.0819,-0.18522 -0.18115,-0.35564 -0.29297,-0.51562 l 22.88672,-8.13477 z m 30.21679,2.7793 5.78907,26.97266 c -0.0727,0.0257 -0.14708,0.0387 -0.21875,0.0703 -0.66255,0.29196 -1.15753,0.79805 -1.4668,1.39453 l -14.13477,-8.38281 c 0.39475,-0.78658 0.46093,-1.73093 0.0781,-2.59961 -0.21289,-0.48215 -0.54225,-0.87072 -0.93164,-1.17188 l 10.88476,-16.2832 z m -109.03906,5.94726 -0.002,0.006 c -10e-4,-1.4e-4 -0.003,1.5e-4 -0.004,0 l 0.006,-0.006 z m -28.44141,1.40626 25.11914,2.25976 c 0.0431,0.20231 0.10662,0.40293 0.19336,0.59961 0.50646,1.14928 1.63429,1.82744 2.81446,1.82031 l 10.26172,27.44727 c -0.49542,0.41996 -0.83625,0.97527 -0.98828,1.58984 l -38.71876,-31.55273 c 0.74844,-0.50328 1.21225,-1.30076 1.31836,-2.16406 z m 84.48438,1.33203 37.24219,9.45312 c -0.0345,0.18722 -0.0501,0.3779 -0.0488,0.57031 l -38.78906,-3.83007 -0.51563,-4.76954 c 0.24717,-0.0412 0.49251,-0.10305 0.73242,-0.20898 0.59717,-0.26316 1.0651,-0.69558 1.37891,-1.21484 z m -3.97266,1.13671 c 0.44733,0.22436 0.94124,0.34815 1.44922,0.33399 l 0.50586,4.67969 -7.52734,-0.74219 5.57226,-4.27149 z m -49.59765,0.34376 42.93164,4.24023 -18.64844,14.29492 -25.05273,-17.46289 c 0.33465,-0.30233 0.59788,-0.66632 0.76953,-1.07226 z m -1.11133,1.34765 25.04297,17.45703 -13.16602,10.0918 c -0.7788,-0.37643 -1.705,-0.43474 -2.55859,-0.0586 -0.13777,0.0608 -0.26087,0.14105 -0.38477,0.21875 l -10.17773,-27.23438 c 0.26288,-0.0395 0.52425,-0.1005 0.7793,-0.21289 0.1663,-0.0734 0.31877,-0.16401 0.46484,-0.26172 z m 44.65039,2.95313 8.06055,0.79492 3.46875,32.08984 c -0.1732,0.0422 -0.34682,0.0934 -0.51563,0.16797 -0.62676,0.27625 -1.10352,0.74221 -1.41601,1.29492 l -28.4961,-19.86328 18.89844,-14.48437 z m 8.48242,0.83789 38.78516,3.83007 c 0.0394,0.26488 0.10332,0.52839 0.21679,0.78516 0.0886,0.20149 0.19841,0.38706 0.32227,0.5586 l -33.33203,27.76367 c -0.64841,-0.69578 -1.58331,-1.04823 -2.53125,-0.95313 l -3.46094,-31.98437 z m 44.30469,5.11133 14.16992,8.40234 c -0.22921,0.6446 -0.23705,1.36367 0.008,2.04687 l -51.6875,19.17579 c -0.0291,-0.32236 -0.0966,-0.64435 -0.23437,-0.95704 -0.0831,-0.18812 -0.18303,-0.36327 -0.29688,-0.52539 l 33.33008,-27.76757 c 0.86311,0.90357 2.22543,1.22564 3.4375,0.6914 0.53678,-0.23696 0.96357,-0.61557 1.27344,-1.0664 z m -72.03516,8.80468 28.6543,19.97461 c -0.17824,0.45197 -0.23588,0.94478 -0.18359,1.43945 l -40.5293,-7.61718 c 0.33013,-0.75527 0.36326,-1.63729 0.004,-2.45117 -0.23858,-0.54093 -0.62097,-0.97079 -1.07618,-1.28125 l 13.13086,-10.06446 z"
         style="display:inline;fill:#ffffff;fill-opacity:1;fill-rule:nonzero;stroke:none"
         inkscape:connector-curvature="0" />
      <text
         xml:space="preserve"
         style="font-style:normal;font-weight:normal;font-size:66.80889893px;line-height:0%;font-family:sans-serif;letter-spacing:0px;word-spacing:0px;fill:#000000;fill-opacity:1;stroke:none;stroke-width:1px;stroke-linecap:butt;stroke-linejoin:miter;stroke-opacity:1"
         x="62.059368"
         y="763.79071"
         id="text3833"
         sodipodi:linespacing="0%"><tspan
           sodipodi:role="line"
           id="tspan3835"
           x="62.059368"
           y="763.79071"
           style="font-style:normal;font-variant:normal;font-weight:300;font-stretch:normal;font-size:66.80889893px;line-height:0%;font-family:Orbitron;-inkscape-font-specification:'Orbitron Light';letter-spacing:1.89367568px;word-spacing:0px;fill:#ffffff"
           dx="0"
           dy="0">Defend the Web</tspan></text>
    </g>
  </g>
</svg>
